{
    "format": "ldp_vc",
    "@context": [
        "https://www.w3.org/2018/credentials/v1",
        "https://www.w3.org/2018/credentials/examples/v1"
    ],
    "types": [
        "VerifiableCredential",
        "UniversityDegreeCredential"
    ],
    "cryptographic_binding_methods_supported": [
        "did"
    ],
    "cryptographic_suites_supported": [
        "Ed25519Signature2018"
    ],
    "display": [
        {
            "name": "University Credential",
            "locale": "en-US",
            "logo": {
                "url": "https://exampleuniversity.com/public/logo.png",
                "alternative_text": "a square logo of a university"
            },
            "background_color": "#12107c",
            "text_color": "#FFFFFF"
        }
    ],
    "credentialSubject": {
        "given_name": {
            "display": [
                {
                    "name": "Given Name",
                    "locale": "en-US"
                }
            ]
        },
        "last_name": {
            "display": [
                {
                    "name": "Surname",
                    "locale": "en-US"
                }
            ]
        },
        "degree": {},
        "gpa": {
            "display": [
                {
                    "name": "GPA"
                }
            ]
        }
    }
}